…
    ## [1] TRUE

#### 4.4. Make a histogram of the total number of steps taken each day then calculate and report the mean and median total number of steps taken per day.

``` r
  steps_full <- No_NAs %>%
  filter(!is.na(steps)) %>%
  group_by(date) %>%
  summarize(steps = sum(steps)) %>%
  print()
```

    ## # A tibble: 53 x 2
    ##          date steps
    ##        <date> <dbl>
    ##  1 2012-10-02   126
    ##  2 2012-10-03 11352
    ##  3 2012-10-04 12116
    ##  4 2012-10-05 13294
    ##  5 2012-10-06 15420
    ##  6 2012-10-07 11015
    ##  7 2012-10-09 12811
    ##  8 2012-10-10  9900
    ##  9 2012-10-11 10304
    ## 10 2012-10-12 17382
    ## # ... with 43 more rows
…
